<?xml version="1.0" standalone="no"?>
<!DOCTYPE svg PUBLIC "-//W3C//DTD SVG 20010904//EN"
 "http://www.w3.org/TR/2001/REC-SVG-20010904/DTD/svg10.dtd">
<svg version="1.0" xmlns="http://www.w3.org/2000/svg"
 width="1000.000000pt" height="1000.000000pt" viewBox="0 0 1000.000000 1000.000000"
 preserveAspectRatio="xMidYMid meet">
<metadata>
Created by potrace 1.11, written by Peter Selinger 2001-2013
</metadata>
<g transform="translate(0.000000,1000.000000) scale(0.100000,-0.100000)"
fill="#000000" stroke="none">
<path d="M6025 6524 c-280 -62 -489 -261 -567 -541 -29 -106 -29 -275 1 -386
80 -301 343 -517 664 -545 332 -29 602 109 726 371 43 93 61 178 68 325 l6
132 -362 0 -361 0 0 -145 0 -145 191 0 190 0 -28 -51 c-56 -103 -157 -158
-308 -166 -107 -6 -182 7 -263 48 -294 147 -286 608 13 754 159 78 376 45 496
-76 l47 -46 136 76 c75 42 136 81 136 86 0 19 -95 125 -154 170 -70 54 -176
107 -261 130 -87 24 -282 29 -370 9z"/>
<path d="M810 5790 l0 -722 343 4 c384 5 399 8 547 80 159 77 293 239 349 423
20 66 25 102 25 210 1 81 -4 150 -13 184 -63 248 -223 425 -456 508 l-80 28
-357 3 -358 3 0 -721z m697 385 c153 -46 253 -196 253 -379 -1 -132 -35 -221
-115 -302 -80 -80 -133 -96 -337 -102 l-168 -4 0 401 0 401 158 0 c112 0 173
-4 209 -15z"/>
<path d="M2630 5790 l0 -720 453 2 452 3 3 158 3 157 -291 0 -290 0 0 125 0
125 258 2 257 3 0 155 0 155 -257 3 -258 2 0 115 0 115 283 2 282 3 3 158 3
157 -451 0 -450 0 0 -720z"/>
<path d="M4162 5793 l3 -718 423 -3 422 -2 0 160 0 160 -255 0 -255 0 0 560 0
560 -170 0 -170 0 2 -717z"/>
<path d="M7756 6408 c-96 -275 -446 -1313 -446 -1325 0 -11 34 -13 177 -11
l176 3 37 110 37 110 264 3 265 2 37 -115 38 -115 180 0 c98 0 179 3 178 8 0
4 -109 327 -242 717 l-242 710 -212 3 -211 2 -36 -102z m357 -625 l55 -173
-164 0 c-90 0 -164 3 -164 6 0 10 152 488 158 499 4 5 18 -28 33 -75 14 -47
51 -163 82 -257z"/>
<path d="M9200 5667 c-235 -66 -309 -370 -130 -531 67 -60 122 -81 215 -81 94
1 155 25 218 88 87 87 115 232 68 343 -27 62 -100 136 -163 164 -59 26 -150
33 -208 17z"/>
<path d="M8285 4913 c-38 -1 -196 -7 -350 -13 -1746 -65 -6273 -364 -7275
-480 -192 -22 -190 -21 -214 -130 -41 -179 -38 -420 7 -510 38 -77 52 -78 223
-21 913 302 3557 677 7899 1120 l380 39 -300 -1 c-165 -1 -331 -2 -370 -4z"/>
</g>
</svg>
